{
  "plots": [
    {
      "type": "2d",
      "title": "My amazing errorbar plot",
      "x_axis": {
        "label": "",
        "scale": "linear"
      },
      "y_axis": {
        "label": "log axis",
        "scale": "log"
      },
      "traces": [
        {
          "type": "errorbar2d",
          "label": "Errorbartest",
          "marker": "o",
          "color": "#008000",
          "ecolor": "#ff0000",
          "datapoints": [
            {
              "x": 1,
              "y": 4,
              "xerr": [
                1,
                2
              ],
              "yerr": [
                3,
                3
              ]
            },
            {
              "x": 2,
              "y": 3,
              "xerr": [
                2,
                3
              ],
              "yerr": [
                4,
                4
              ]
            }
          ]
        }
      ]
    }
  ]
}