{
  "plots": [
    {
      "type": "2d",
      "title": "",
      "x_axis": {
        "label": "",
        "scale": "linear"
      },
      "y_axis": {
        "label": "",
        "scale": "linear"
      },
      "traces": [
        {
          "type": "histogram",
          "bins": [
            1,
            4,
            6,
            8
          ],
          "density": true,
          "cumulative": true,
          "x": [
            {
              "x_i": [
                1,
                2,
                2,
                2,
                5,
                5,
                8
              ],
              "color": "#ffa500ff",
              "label": "dist1"
            },
            {
              "x_i": [
                1,
                1,
                1,
                4,
                4,
                4,
                4
              ],
              "color": "#000000ff",
              "label": "dist2"
            },
            {
              "x_i": [
                3,
                3,
                7,
                7,
                9,
                9,
                9
              ],
              "color": "#008000ff",
              "label": "dist3"
            }
          ]
        }
      ]
    }
  ]
}