{
  "plots": [
    {
      "type": "3d",
      "title": "",
      "x_axis": {
        "label": "",
        "scale": "linear"
      },
      "y_axis": {
        "label": "",
        "scale": "linear"
      },
      "z_axis": {
        "label": "",
        "scale": "linear"
      },
      "traces": [
        {
          "type": "scatter3D",
          "label": "_child0",
          "marker": "o",
          "datapoints": [
            {
              "x": 1,
              "y": 2.0,
              "z": 3.0,
              "color": "#008000ff"
            },
            {
              "x": 2,
              "y": 1.5,
              "z": 2.0,
              "color": "#0000ffff"
            },
            {
              "x": 3,
              "y": 5.0,
              "z": 1.0,
              "color": "#ff0000ff"
            },
            {
              "x": 4,
              "y": 0.0,
              "z": 0.5,
              "color": "#ffff00ff"
            },
            {
              "x": 3,
              "y": 4.0,
              "z": 2.0,
              "color": "#000000ff"
            }
          ]
        }
      ]
    }
  ]
}